MARP exploration - Team 40b
…
# GGPLOT vatiant?
marp_proc %>% 
    select(starts_with("wb"))

## # A tibble: 10,195 x 22
##    wb_gen_1 wb_gen_2 wb_phys_1 wb_phys_2 wb_phys_3 wb_phys_4 wb_phys_5 wb_phys_6
##       <dbl>    <dbl>     <dbl>     <dbl>     <dbl>     <dbl>     <dbl>     <dbl>
##  1        4        4         2         3         4         5         4         4
##  2        4        4         4         5         4         4         4         5
##  3        5        5         2         1         5         5         4         5
##  4        5        4         5         4         4         4         3         5
##  5        3        4         4         4         4         3         5         4
##  6        4        4         2         3         4         4         4         4
##  7        4        4         4         4         4         4         2         4
##  8        5        1         5         5         5         5         5         5
##  9        4        5         2         1         5         4         4         4
## 10        4        4         3         4         5         5         5         5
## # ... with 10,185 more rows, and 14 more variables: wb_phys_7 <dbl>,
## #   wb_psych_1 <dbl>, wb_psych_2 <dbl>, wb_psych_3 <dbl>, wb_psych_4 <dbl>,
## #   wb_psych_5 <dbl>, wb_psych_6 <dbl>, wb_soc_1 <dbl>, wb_soc_2 <dbl>,
## #   wb_soc_3 <dbl>, wb_overall_mean <dbl>, wb_phys_mean <dbl>,
## #   wb_psych_mean <dbl>, wb_soc_mean <dbl>
…
